%YAML 1.1
%TAG !u! tag:unity3d.com,2011:
--- !u!74 &7400000
AnimationClip:
  m_ObjectHideFlags: 0
  m_PrefabParentObject: {fileID: 0}
  m_PrefabInternal: {fileID: 0}
  m_Name: Menu_Pause
  serializedVersion: 6
  m_Legacy: 0
  m_Compressed: 0
  m_UseHighQualityCurve: 1
  m_RotationCurves: []
  m_CompressedRotationCurves: []
  m_PositionCurves: []
  m_ScaleCurves: []
  m_FloatCurves: []
  m_PPtrCurves:
  - curve:
    - time: 0
      value: {fileID: 21300000, guid: da1019e5133eb1943809f6782db235e8, type: 3}
    - time: .0166666675
      value: {fileID: 21300002, guid: da1019e5133eb1943809f6782db235e8, type: 3}
    - time: .0333333351
      value: {fileID: 21300004, guid: da1019e5133eb1943809f6782db235e8, type: 3}
    - time: .0500000007
      value: {fileID: 21300006, guid: da1019e5133eb1943809f6782db235e8, type: 3}
    - time: .0666666701
      value: {fileID: 21300008, guid: da1019e5133eb1943809f6782db235e8, type: 3}
    - time: .0833333358
      value: {fileID: 21300010, guid: da1019e5133eb1943809f6782db235e8, type: 3}
    - time: .100000001
      value: {fileID: 21300012, guid: da1019e5133eb1943809f6782db235e8, type: 3}
    - time: .116666667
      value: {fileID: 21300014, guid: da1019e5133eb1943809f6782db235e8, type: 3}
    - time: .13333334
      value: {fileID: 21300016, guid: da1019e5133eb1943809f6782db235e8, type: 3}
    - time: .150000006
      value: {fileID: 21300018, guid: da1019e5133eb1943809f6782db235e8, type: 3}
    - time: .166666672
      value: {fileID: 21300020, guid: da1019e5133eb1943809f6782db235e8, type: 3}
    - time: .183333337
      value: {fileID: 21300022, guid: da1019e5133eb1943809f6782db235e8, type: 3}
    - time: .200000003
      value: {fileID: 21300024, guid: da1019e5133eb1943809f6782db235e8, type: 3}
    - time: .216666669
      value: {fileID: 21300026, guid: da1019e5133eb1943809f6782db235e8, type: 3}
    - time: .233333334
      value: {fileID: 21300028, guid: da1019e5133eb1943809f6782db235e8, type: 3}
    - time: .25
      value: {fileID: 21300030, guid: da1019e5133eb1943809f6782db235e8, type: 3}
    - time: .266666681
      value: {fileID: 21300032, guid: da1019e5133eb1943809f6782db235e8, type: 3}
    - time: .283333361
      value: {fileID: 21300034, guid: da1019e5133eb1943809f6782db235e8, type: 3}
    - time: .300000042
      value: {fileID: 21300036, guid: da1019e5133eb1943809f6782db235e8, type: 3}
    - time: .316666722
      value: {fileID: 21300038, guid: da1019e5133eb1943809f6782db235e8, type: 3}
    - time: .333333403
      value: {fileID: 21300040, guid: da1019e5133eb1943809f6782db235e8, type: 3}
    - time: .350000083
      value: {fileID: 21300042, guid: da1019e5133eb1943809f6782db235e8, type: 3}
    - time: .366666764
      value: {fileID: 21300044, guid: da1019e5133eb1943809f6782db235e8, type: 3}
    - time: .383333445
      value: {fileID: 21300046, guid: da1019e5133eb1943809f6782db235e8, type: 3}
    - time: .400000125
      value: {fileID: 21300048, guid: da1019e5133eb1943809f6782db235e8, type: 3}
    - time: .416666806
      value: {fileID: 21300050, guid: da1019e5133eb1943809f6782db235e8, type: 3}
    - time: .433333486
      value: {fileID: 21300052, guid: da1019e5133eb1943809f6782db235e8, type: 3}
    - time: .450000167
      value: {fileID: 21300054, guid: da1019e5133eb1943809f6782db235e8, type: 3}
    - time: .466666847
      value: {fileID: 21300056, guid: da1019e5133eb1943809f6782db235e8, type: 3}
    - time: .483333528
      value: {fileID: 21300058, guid: da1019e5133eb1943809f6782db235e8, type: 3}
    - time: .500000179
      value: {fileID: 21300060, guid: da1019e5133eb1943809f6782db235e8, type: 3}
    - time: .51666683
      value: {fileID: 21300062, guid: da1019e5133eb1943809f6782db235e8, type: 3}
    - time: .53333348
      value: {fileID: 21300064, guid: da1019e5133eb1943809f6782db235e8, type: 3}
    - time: .550000131
      value: {fileID: 21300066, guid: da1019e5133eb1943809f6782db235e8, type: 3}
    - time: .566666782
      value: {fileID: 21300068, guid: da1019e5133eb1943809f6782db235e8, type: 3}
    - time: .583333433
      value: {fileID: 21300070, guid: da1019e5133eb1943809f6782db235e8, type: 3}
    - time: .600000083
      value: {fileID: 21300072, guid: da1019e5133eb1943809f6782db235e8, type: 3}
    - time: .616666734
      value: {fileID: 21300074, guid: da1019e5133eb1943809f6782db235e8, type: 3}
    - time: .633333385
      value: {fileID: 21300076, guid: da1019e5133eb1943809f6782db235e8, type: 3}
    - time: .650000036
      value: {fileID: 21300078, guid: da1019e5133eb1943809f6782db235e8, type: 3}
    - time: .666666687
      value: {fileID: 21300080, guid: da1019e5133eb1943809f6782db235e8, type: 3}
    - time: .683333337
      value: {fileID: 21300082, guid: da1019e5133eb1943809f6782db235e8, type: 3}
    - time: .699999988
      value: {fileID: 21300084, guid: da1019e5133eb1943809f6782db235e8, type: 3}
    - time: .716666639
      value: {fileID: 21300086, guid: da1019e5133eb1943809f6782db235e8, type: 3}
    - time: .73333329
      value: {fileID: 21300088, guid: da1019e5133eb1943809f6782db235e8, type: 3}
    - time: .74999994
      value: {fileID: 21300090, guid: da1019e5133eb1943809f6782db235e8, type: 3}
    - time: .766666591
      value: {fileID: 21300092, guid: da1019e5133eb1943809f6782db235e8, type: 3}
    - time: .783333242
      value: {fileID: 21300094, guid: da1019e5133eb1943809f6782db235e8, type: 3}
    - time: .799999893
      value: {fileID: 21300096, guid: da1019e5133eb1943809f6782db235e8, type: 3}
    - time: .816666543
      value: {fileID: 21300098, guid: da1019e5133eb1943809f6782db235e8, type: 3}
    - time: .833333194
      value: {fileID: 21300100, guid: da1019e5133eb1943809f6782db235e8, type: 3}
    - time: .849999845
      value: {fileID: 21300102, guid: da1019e5133eb1943809f6782db235e8, type: 3}
    - time: .866666496
      value: {fileID: 21300104, guid: da1019e5133eb1943809f6782db235e8, type: 3}
    - time: .883333147
      value: {fileID: 21300106, guid: da1019e5133eb1943809f6782db235e8, type: 3}
    - time: .899999797
      value: {fileID: 21300108, guid: da1019e5133eb1943809f6782db235e8, type: 3}
    - time: .916666448
      value: {fileID: 21300110, guid: da1019e5133eb1943809f6782db235e8, type: 3}
    - time: .933333099
      value: {fileID: 21300112, guid: da1019e5133eb1943809f6782db235e8, type: 3}
    - time: .94999975
      value: {fileID: 21300114, guid: da1019e5133eb1943809f6782db235e8, type: 3}
    - time: .9666664
      value: {fileID: 21300116, guid: da1019e5133eb1943809f6782db235e8, type: 3}
    - time: .983333349
      value: {fileID: 21300118, guid: da1019e5133eb1943809f6782db235e8, type: 3}
    attribute: m_Sprite
    path: 
    classID: 212
    script: {fileID: 0}
  - curve:
    - time: 0
      value: {fileID: 21300000, guid: da1019e5133eb1943809f6782db235e8, type: 3}
    - time: .0166666675
      value: {fileID: 21300002, guid: da1019e5133eb1943809f6782db235e8, type: 3}
    - time: .0333333351
      value: {fileID: 21300004, guid: da1019e5133eb1943809f6782db235e8, type: 3}
    - time: .0500000007
      value: {fileID: 21300006, guid: da1019e5133eb1943809f6782db235e8, type: 3}
    - time: .0666666701
      value: {fileID: 21300008, guid: da1019e5133eb1943809f6782db235e8, type: 3}
    - time: .0833333358
      value: {fileID: 21300010, guid: da1019e5133eb1943809f6782db235e8, type: 3}
    - time: .100000001
      value: {fileID: 21300012, guid: da1019e5133eb1943809f6782db235e8, type: 3}
    - time: .116666667
      value: {fileID: 21300014, guid: da1019e5133eb1943809f6782db235e8, type: 3}
    - time: .13333334
      value: {fileID: 21300016, guid: da1019e5133eb1943809f6782db235e8, type: 3}
    - time: .150000006
      value: {fileID: 21300018, guid: da1019e5133eb1943809f6782db235e8, type: 3}
    - time: .166666672
      value: {fileID: 21300020, guid: da1019e5133eb1943809f6782db235e8, type: 3}
    - time: .183333337
      value: {fileID: 21300022, guid: da1019e5133eb1943809f6782db235e8, type: 3}
    - time: .200000003
      value: {fileID: 21300024, guid: da1019e5133eb1943809f6782db235e8, type: 3}
    - time: .216666669
      value: {fileID: 21300026, guid: da1019e5133eb1943809f6782db235e8, type: 3}
    - time: .233333334
      value: {fileID: 21300028, guid: da1019e5133eb1943809f6782db235e8, type: 3}
    - time: .25
      value: {fileID: 21300030, guid: da1019e5133eb1943809f6782db235e8, type: 3}
    - time: .266666681
      value: {fileID: 21300032, guid: da1019e5133eb1943809f6782db235e8, type: 3}
    - time: .283333361
      value: {fileID: 21300034, guid: da1019e5133eb1943809f6782db235e8, type: 3}
    - time: .300000042
      value: {fileID: 21300036, guid: da1019e5133eb1943809f6782db235e8, type: 3}
    - time: .316666722
      value: {fileID: 21300038, guid: da1019e5133eb1943809f6782db235e8, type: 3}
    - time: .333333403
      value: {fileID: 21300040, guid: da1019e5133eb1943809f6782db235e8, type: 3}
    - time: .350000083
      value: {fileID: 21300042, guid: da1019e5133eb1943809f6782db235e8, type: 3}
    - time: .366666764
      value: {fileID: 21300044, guid: da1019e5133eb1943809f6782db235e8, type: 3}
    - time: .383333445
      value: {fileID: 21300046, guid: da1019e5133eb1943809f6782db235e8, type: 3}
    - time: .400000125
      value: {fileID: 21300048, guid: da1019e5133eb1943809f6782db235e8, type: 3}
    - time: .416666806
      value: {fileID: 21300050, guid: da1019e5133eb1943809f6782db235e8, type: 3}
    - time: .433333486
      value: {fileID: 21300052, guid: da1019e5133eb1943809f6782db235e8, type: 3}
    - time: .450000167
      value: {fileID: 21300054, guid: da1019e5133eb1943809f6782db235e8, type: 3}
    - time: .466666847
      value: {fileID: 21300056, guid: da1019e5133eb1943809f6782db235e8, type: 3}
    - time: .483333528
      value: {fileID: 21300058, guid: da1019e5133eb1943809f6782db235e8, type: 3}
    - time: .500000179
      value: {fileID: 21300060, guid: da1019e5133eb1943809f6782db235e8, type: 3}
    - time: .51666683
      value: {fileID: 21300062, guid: da1019e5133eb1943809f6782db235e8, type: 3}
    - time: .53333348
      value: {fileID: 21300064, guid: da1019e5133eb1943809f6782db235e8, type: 3}
    - time: .550000131
      value: {fileID: 21300066, guid: da1019e5133eb1943809f6782db235e8, type: 3}
    - time: .566666782
      value: {fileID: 21300068, guid: da1019e5133eb1943809f6782db235e8, type: 3}
    - time: .583333433
      value: {fileID: 21300070, guid: da1019e5133eb1943809f6782db235e8, type: 3}
    - time: .600000083
      value: {fileID: 21300072, guid: da1019e5133eb1943809f6782db235e8, type: 3}
    - time: .616666734
      value: {fileID: 21300074, guid: da1019e5133eb1943809f6782db235e8, type: 3}
    - time: .633333385
      value: {fileID: 21300076, guid: da1019e5133eb1943809f6782db235e8, type: 3}
    - time: .650000036
      value: {fileID: 21300078, guid: da1019e5133eb1943809f6782db235e8, type: 3}
    - time: .666666687
      value: {fileID: 21300080, guid: da1019e5133eb1943809f6782db235e8, type: 3}
    - time: .683333337
      value: {fileID: 21300082, guid: da1019e5133eb1943809f6782db235e8, type: 3}
    - time: .699999988
      value: {fileID: 21300084, guid: da1019e5133eb1943809f6782db235e8, type: 3}
    - time: .716666639
      value: {fileID: 21300086, guid: da1019e5133eb1943809f6782db235e8, type: 3}
    - time: .73333329
      value: {fileID: 21300088, guid: da1019e5133eb1943809f6782db235e8, type: 3}
    - time: .74999994
      value: {fileID: 21300090, guid: da1019e5133eb1943809f6782db235e8, type: 3}
    - time: .766666591
      value: {fileID: 21300092, guid: da1019e5133eb1943809f6782db235e8, type: 3}
    - time: .783333242
      value: {fileID: 21300094, guid: da1019e5133eb1943809f6782db235e8, type: 3}
    - time: .799999893
      value: {fileID: 21300096, guid: da1019e5133eb1943809f6782db235e8, type: 3}
    - time: .816666543
      value: {fileID: 21300098, guid: da1019e5133eb1943809f6782db235e8, type: 3}
    - time: .833333194
      value: {fileID: 21300100, guid: da1019e5133eb1943809f6782db235e8, type: 3}
    - time: .849999845
      value: {fileID: 21300102, guid: da1019e5133eb1943809f6782db235e8, type: 3}
    - time: .866666496
      value: {fileID: 21300104, guid: da1019e5133eb1943809f6782db235e8, type: 3}
    - time: .883333147
      value: {fileID: 21300106, guid: da1019e5133eb1943809f6782db235e8, type: 3}
    - time: .899999797
      value: {fileID: 21300108, guid: da1019e5133eb1943809f6782db235e8, type: 3}
    - time: .916666448
      value: {fileID: 21300110, guid: da1019e5133eb1943809f6782db235e8, type: 3}
    - time: .933333099
      value: {fileID: 21300112, guid: da1019e5133eb1943809f6782db235e8, type: 3}
    - time: .94999975
      value: {fileID: 21300114, guid: da1019e5133eb1943809f6782db235e8, type: 3}
    - time: .9666664
      value: {fileID: 21300116, guid: da1019e5133eb1943809f6782db235e8, type: 3}
    - time: .983333051
      value: {fileID: 21300118, guid: da1019e5133eb1943809f6782db235e8, type: 3}
    attribute: m_Sprite
    path: 
    classID: 114
    script: {fileID: -765806418, guid: f5f67c52d1564df4a8936ccd202a3bd8, type: 3}
  m_SampleRate: 60
  m_WrapMode: 0
  m_Bounds:
    m_Center: {x: 0, y: 0, z: 0}
    m_Extent: {x: 0, y: 0, z: 0}
  m_ClipBindingConstant:
    genericBindings:
    - path: 0
      attribute: 0
      script: {fileID: 0}
      classID: 212
      customType: 23
      isPPtrCurve: 1
    - path: 0
      attribute: 2015549526
      script: {fileID: -765806418, guid: f5f67c52d1564df4a8936ccd202a3bd8, type: 3}
      classID: 114
      customType: 0
      isPPtrCurve: 1
    pptrCurveMapping:
    - {fileID: 21300000, guid: da1019e5133eb1943809f6782db235e8, type: 3}
    - {fileID: 21300002, guid: da1019e5133eb1943809f6782db235e8, type: 3}
    - {fileID: 21300004, guid: da1019e5133eb1943809f6782db235e8, type: 3}
    - {fileID: 21300006, guid: da1019e5133eb1943809f6782db235e8, type: 3}
    - {fileID: 21300008, guid: da1019e5133eb1943809f6782db235e8, type: 3}
    - {fileID: 21300010, guid: da1019e5133eb1943809f6782db235e8, type: 3}
    - {fileID: 21300012, guid: da1019e5133eb1943809f6782db235e8, type: 3}
    - {fileID: 21300014, guid: da1019e5133eb1943809f6782db235e8, type: 3}
    - {fileID: 21300016, guid: da1019e5133eb1943809f6782db235e8, type: 3}
    - {fileID: 21300018, guid: da1019e5133eb1943809f6782db235e8, type: 3}
    - {fileID: 21300020, guid: da1019e5133eb1943809f6782db235e8, type: 3}
    - {fileID: 21300022, guid: da1019e5133eb1943809f6782db235e8, type: 3}
    - {fileID: 21300024, guid: da1019e5133eb1943809f6782db235e8, type: 3}
    - {fileID: 21300026, guid: da1019e5133eb1943809f6782db235e8, type: 3}
    - {fileID: 21300028, guid: da1019e5133eb1943809f6782db235e8, type: 3}
    - {fileID: 21300030, guid: da1019e5133eb1943809f6782db235e8, type: 3}
    - {fileID: 21300032, guid: da1019e5133eb1943809f6782db235e8, type: 3}
    - {fileID: 21300034, guid: da1019e5133eb1943809f6782db235e8, type: 3}
    - {fileID: 21300036, guid: da1019e5133eb1943809f6782db235e8, type: 3}
    - {fileID: 21300038, guid: da1019e5133eb1943809f6782db235e8, type: 3}
    - {fileID: 21300040, guid: da1019e5133eb1943809f6782db235e8, type: 3}
    - {fileID: 21300042, guid: da1019e5133eb1943809f6782db235e8, type: 3}
    - {fileID: 21300044, guid: da1019e5133eb1943809f6782db235e8, type: 3}
    - {fileID: 21300046, guid: da1019e5133eb1943809f6782db235e8, type: 3}
    - {fileID: 21300048, guid: da1019e5133eb1943809f6782db235e8, type: 3}
    - {fileID: 21300050, guid: da1019e5133eb1943809f6782db235e8, type: 3}
    - {fileID: 21300052, guid: da1019e5133eb1943809f6782db235e8, type: 3}
    - {fileID: 21300054, guid: da1019e5133eb1943809f6782db235e8, type: 3}
    - {fileID: 21300056, guid: da1019e5133eb1943809f6782db235e8, type: 3}
    - {fileID: 21300058, guid: da1019e5133eb1943809f6782db235e8, type: 3}
    - {fileID: 21300060, guid: da1019e5133eb1943809f6782db235e8, type: 3}
    - {fileID: 21300062, guid: da1019e5133eb1943809f6782db235e8, type: 3}
    - {fileID: 21300064, guid: da1019e5133eb1943809f6782db235e8, type: 3}
    - {fileID: 21300066, guid: da1019e5133eb1943809f6782db235e8, type: 3}
    - {fileID: 21300068, guid: da1019e5133eb1943809f6782db235e8, type: 3}
    - {fileID: 21300070, guid: da1019e5133eb1943809f6782db235e8, type: 3}
    - {fileID: 21300072, guid: da1019e5133eb1943809f6782db235e8, type: 3}
    - {fileID: 21300074, guid: da1019e5133eb1943809f6782db235e8, type: 3}
    - {fileID: 21300076, guid: da1019e5133eb1943809f6782db235e8, type: 3}
    - {fileID: 21300078, guid: da1019e5133eb1943809f6782db235e8, type: 3}
    - {fileID: 21300080, guid: da1019e5133eb1943809f6782db235e8, type: 3}
    - {fileID: 21300082, guid: da1019e5133eb1943809f6782db235e8, type: 3}
    - {fileID: 21300084, guid: da1019e5133eb1943809f6782db235e8, type: 3}
    - {fileID: 21300086, guid: da1019e5133eb1943809f6782db235e8, type: 3}
    - {fileID: 21300088, guid: da1019e5133eb1943809f6782db235e8, type: 3}
    - {fileID: 21300090, guid: da1019e5133eb1943809f6782db235e8, type: 3}
    - {fileID: 21300092, guid: da1019e5133eb1943809f6782db235e8, type: 3}
    - {fileID: 21300094, guid: da1019e5133eb1943809f6782db235e8, type: 3}
    - {fileID: 21300096, guid: da1019e5133eb1943809f6782db235e8, type: 3}
    - {fileID: 21300098, guid: da1019e5133eb1943809f6782db235e8, type: 3}
    - {fileID: 21300100, guid: da1019e5133eb1943809f6782db235e8, type: 3}
    - {fileID: 21300102, guid: da1019e5133eb1943809f6782db235e8, type: 3}
    - {fileID: 21300104, guid: da1019e5133eb1943809f6782db235e8, type: 3}
    - {fileID: 21300106, guid: da1019e5133eb1943809f6782db235e8, type: 3}
    - {fileID: 21300108, guid: da1019e5133eb1943809f6782db235e8, type: 3}
    - {fileID: 21300110, guid: da1019e5133eb1943809f6782db235e8, type: 3}
    - {fileID: 21300112, guid: da1019e5133eb1943809f6782db235e8, type: 3}
    - {fileID: 21300114, guid: da1019e5133eb1943809f6782db235e8, type: 3}
    - {fileID: 21300116, guid: da1019e5133eb1943809f6782db235e8, type: 3}
    - {fileID: 21300118, guid: da1019e5133eb1943809f6782db235e8, type: 3}
    - {fileID: 21300000, guid: da1019e5133eb1943809f6782db235e8, type: 3}
    - {fileID: 21300002, guid: da1019e5133eb1943809f6782db235e8, type: 3}
    - {fileID: 21300004, guid: da1019e5133eb1943809f6782db235e8, type: 3}
    - {fileID: 21300006, guid: da1019e5133eb1943809f6782db235e8, type: 3}
    - {fileID: 21300008, guid: da1019e5133eb1943809f6782db235e8, type: 3}
    - {fileID: 21300010, guid: da1019e5133eb1943809f6782db235e8, type: 3}
    - {fileID: 21300012, guid: da1019e5133eb1943809f6782db235e8, type: 3}
    - {fileID: 21300014, guid: da1019e5133eb1943809f6782db235e8, type: 3}
    - {fileID: 21300016, guid: da1019e5133eb1943809f6782db235e8, type: 3}
    - {fileID: 21300018, guid: da1019e5133eb1943809f6782db235e8, type: 3}
    - {fileID: 21300020, guid: da1019e5133eb1943809f6782db235e8, type: 3}
    - {fileID: 21300022, guid: da1019e5133eb1943809f6782db235e8, type: 3}
    - {fileID: 21300024, guid: da1019e5133eb1943809f6782db235e8, type: 3}
    - {fileID: 21300026, guid: da1019e5133eb1943809f6782db235e8, type: 3}
    - {fileID: 21300028, guid: da1019e5133eb1943809f6782db235e8, type: 3}
    - {fileID: 21300030, guid: da1019e5133eb1943809f6782db235e8, type: 3}
    - {fileID: 21300032, guid: da1019e5133eb1943809f6782db235e8, type: 3}
    - {fileID: 21300034, guid: da1019e5133eb1943809f6782db235e8, type: 3}
    - {fileID: 21300036, guid: da1019e5133eb1943809f6782db235e8, type: 3}
    - {fileID: 21300038, guid: da1019e5133eb1943809f6782db235e8, type: 3}
    - {fileID: 21300040, guid: da1019e5133eb1943809f6782db235e8, type: 3}
    - {fileID: 21300042, guid: da1019e5133eb1943809f6782db235e8, type: 3}
    - {fileID: 21300044, guid: da1019e5133eb1943809f6782db235e8, type: 3}
    - {fileID: 21300046, guid: da1019e5133eb1943809f6782db235e8, type: 3}
    - {fileID: 21300048, guid: da1019e5133eb1943809f6782db235e8, type: 3}
    - {fileID: 21300050, guid: da1019e5133eb1943809f6782db235e8, type: 3}
    - {fileID: 21300052, guid: da1019e5133eb1943809f6782db235e8, type: 3}
    - {fileID: 21300054, guid: da1019e5133eb1943809f6782db235e8, type: 3}
    - {fileID: 21300056, guid: da1019e5133eb1943809f6782db235e8, type: 3}
    - {fileID: 21300058, guid: da1019e5133eb1943809f6782db235e8, type: 3}
    - {fileID: 21300060, guid: da1019e5133eb1943809f6782db235e8, type: 3}
    - {fileID: 21300062, guid: da1019e5133eb1943809f6782db235e8, type: 3}
    - {fileID: 21300064, guid: da1019e5133eb1943809f6782db235e8, type: 3}
    - {fileID: 21300066, guid: da1019e5133eb1943809f6782db235e8, type: 3}
    - {fileID: 21300068, guid: da1019e5133eb1943809f6782db235e8, type: 3}
    - {fileID: 21300070, guid: da1019e5133eb1943809f6782db235e8, type: 3}
    - {fileID: 21300072, guid: da1019e5133eb1943809f6782db235e8, type: 3}
    - {fileID: 21300074, guid: da1019e5133eb1943809f6782db235e8, type: 3}
    - {fileID: 21300076, guid: da1019e5133eb1943809f6782db235e8, type: 3}
    - {fileID: 21300078, guid: da1019e5133eb1943809f6782db235e8, type: 3}
    - {fileID: 21300080, guid: da1019e5133eb1943809f6782db235e8, type: 3}
    - {fileID: 21300082, guid: da1019e5133eb1943809f6782db235e8, type: 3}
    - {fileID: 21300084, guid: da1019e5133eb1943809f6782db235e8, type: 3}
    - {fileID: 21300086, guid: da1019e5133eb1943809f6782db235e8, type: 3}
    - {fileID: 21300088, guid: da1019e5133eb1943809f6782db235e8, type: 3}
    - {fileID: 21300090, guid: da1019e5133eb1943809f6782db235e8, type: 3}
    - {fileID: 21300092, guid: da1019e5133eb1943809f6782db235e8, type: 3}
    - {fileID: 21300094, guid: da1019e5133eb1943809f6782db235e8, type: 3}
    - {fileID: 21300096, guid: da1019e5133eb1943809f6782db235e8, type: 3}
    - {fileID: 21300098, guid: da1019e5133eb1943809f6782db235e8, type: 3}
    - {fileID: 21300100, guid: da1019e5133eb1943809f6782db235e8, type: 3}
    - {fileID: 21300102, guid: da1019e5133eb1943809f6782db235e8, type: 3}
    - {fileID: 21300104, guid: da1019e5133eb1943809f6782db235e8, type: 3}
    - {fileID: 21300106, guid: da1019e5133eb1943809f6782db235e8, type: 3}
    - {fileID: 21300108, guid: da1019e5133eb1943809f6782db235e8, type: 3}
    - {fileID: 21300110, guid: da1019e5133eb1943809f6782db235e8, type: 3}
    - {fileID: 21300112, guid: da1019e5133eb1943809f6782db235e8, type: 3}
    - {fileID: 21300114, guid: da1019e5133eb1943809f6782db235e8, type: 3}
    - {fileID: 21300116, guid: da1019e5133eb1943809f6782db235e8, type: 3}
    - {fileID: 21300118, guid: da1019e5133eb1943809f6782db235e8, type: 3}
  m_AnimationClipSettings:
    serializedVersion: 2
    m_StartTime: 0
    m_StopTime: 1
    m_OrientationOffsetY: 0
    m_Level: 0
    m_CycleOffset: 0
    m_LoopTime: 1
    m_LoopBlend: 0
    m_LoopBlendOrientation: 0
    m_LoopBlendPositionY: 0
    m_LoopBlendPositionXZ: 0
    m_KeepOriginalOrientation: 0
    m_KeepOriginalPositionY: 1
    m_KeepOriginalPositionXZ: 0
    m_HeightFromFeet: 0
    m_Mirror: 0
  m_EditorCurves: []
  m_EulerEditorCurves: []
  m_HasGenericRootTransform: 0
  m_HasMotionFloatCurves: 0
  m_GenerateMotionCurves: 0
  m_Events: []
